%YAML 1.1
%TAG !u! tag:unity3d.com,2011:
--- !u!21 &2100000
Material:
  serializedVersion: 6
  m_ObjectHideFlags: 0
  m_CorrespondingSourceObject: {fileID: 0}
  m_PrefabInstance: {fileID: 0}
  m_PrefabAsset: {fileID: 0}
  m_Name: M_Enemy_Hologram
  m_Shader: {fileID: 4800000, guid: 29fed12d8547e354e90be987488147c1, type: 3}
  m_ShaderKeywords: _GLITCH_ON _GLOW_ON _SCAN_ON
  m_LightmapFlags: 4
  m_EnableInstancingVariants: 0
  m_DoubleSidedGI: 0
  m_CustomRenderQueue: -1
  stringTagMap: {}
  disabledShaderPasses: []
  m_SavedProperties:
    serializedVersion: 3
    m_TexEnvs:
    - _FlickerTex:
        m_Texture: {fileID: 0}
        m_Scale: {x: 1, y: 1}
        m_Offset: {x: 0, y: 0}
    - _MainTex:
        m_Texture: {fileID: 0}
        m_Scale: {x: 1, y: 1}
        m_Offset: {x: 0, y: 0}
    m_Floats:
    - _Alpha: 0.33
    - _Brightness: 1.83
    - _FlickerSpeed: 20
    - _Fold: 3
    - _GlitchIntensity: 1
    - _GlitchSpeed: 41.5
    - _GlowSpeed: 10
    - _GlowTiling: 1
    - _RimPower: 4.2
    - _ScanSpeed: 1
    - _ScanTiling: 10
    m_Colors:
    - _Direction: {r: 0, g: 1, b: 0, a: 0}
    - _MainColor: {r: 0.9607843, g: 0.11372546, b: 0.7274953, a: 1}
    - _RimColor: {r: 0, g: 0, b: 0, a: 1}
